EA,Date,Trades,PL,Size,bzip
MACD Sample,2005.09.15,554,15.5,7091,2165
MA2CCI,2005.11.16,1138,-899.2,7446,2147
Trade in Channel,2005.12.03,7251,-2263,9257,2581
gpfTCPivotStop,2006.01.18,3900,-3853,14767,3234
Dodgy Backtest Example,2006.09.18,20326,-9864,6531,2155
Catching Gaps,2007.01.15,140,612,3291,1012
Frank_ud,2007.05.03,18,-1438,7076,1616
e-TurboFx,2007.08.04,2043,310,4243,1416
Lucky,2007.11.14,7293,-9501,2030,622
Simple FX,2007.12.01,479,-840,14064,3547
True Scalper Profit Lock,2008.02.01,13151,-4853,12348,2579
Automated Trading System Сombo,2008.03.06,20977,-815,4705,1219
TTT,2008.04.01,105,251,5924,1495
TREND_alexcud v_2,2008.05.05,414,203,10829,2162
up3x1 Krohabor D,2008.06.01,794,-1045,4623,1339
Momo_trades,2008.07.03,748,-887,11732,3445
MAMACD,2008.09.05,2132,-468,2366,1073
The MasterMind 3,2008.10.02,461,-5365,33224,6168
Get of the ground,2008.11.02,15652,-134,9665,2186
MA Reverse,2009.01.06,3900,-3853,832,333
Gandalf_PRO,2009.05.05,496,95,6590,1631
Elli,2009.06.03 06:12,1201,-774,16270,3873
wajdyss_MA_expert_v3,2009.08.01,8414,-8269,14927,3052
Comfracti_final,2009.09.21,166,-703,8929,2776
ADX Simple,2009.10.16,4074,-8448,5007,1435
Scalpel EA,2009.11.04,184,11031,8253,2453
scalping EA,2009.12.01,110,67,3021,1023
CasinoFX,2010.02.05,230,80,4262,1316
Indics Shaker EA,2010.03.02,55,-150,8208,1971
Simplest Hedging EA,2010.04.06,1636,-4873,1138,558
Nevalyashka_BreakdownLevel,2010.05.10,402,-703,7012,2024
ytg_Speed_MA_ea,2010.07.06,403,126,1345,542
error EA,2010.10.20,16384,-8163,8150,2456
X bug,2010.10.20,5719,-3570,17054,3531
Move Cross,2011.01.27,7,-5213,55068,4947
EMAplusWPR,2011.02.07,564,-48,12398,2753
GoodG@bi,2011.03.09,172,-4560,8354,2244
X trail 2,2011.04.06,3900,-3853,3952,1006
LiveAlligator,2011.07.01,503,-5755,12333,2761
204060 program,2011.09.16,957,1914,40143,6762
